{
    "code": 200,
    "message": "done",
    "data": [
       {
"id": 1,
"topic": "Meeting Topic",
"committee_id": 1,
"date": "Oct 16th, 2019",
"start_time": "06:00 PM",
"end_time": "08:00 PM",
"status": "completed",
"description": "Meeting Minutes",
"suppliersCount": 0,
"membersCount": 0
},
{
"id": 2,
"topic": "New Meeting",
"committee_id": 1,
"date": "Oct 14th, 2019",
"start_time": "02:30 PM",
"end_time": "04:30 PM",
"status": "pending",
"description": null,
"suppliersCount": 0,
"membersCount": 0
}
    ]
}